<mxfile host="app.diagrams.net" modified="2023-09-27T16:28:17.706Z" agent="Mozilla/5.0 (Windows NT 10.0; Win64; x64) AppleWebKit/537.36 (KHTML, like Gecko) Chrome/116.0.0.0 Safari/537.36 OPR/102.0.0.0" etag="W5H2meGlxBDpWzgKfwh8" version="21.8.2" type="device">
  <diagram name="Page-1" id="u__VcbIKhRYJhSLT8bUO">
    <mxGraphModel dx="2223" dy="1150" grid="1" gridSize="10" guides="1" tooltips="1" connect="1" arrows="1" fold="1" page="0" pageScale="1" pageWidth="850" pageHeight="1100" math="0" shadow="0">
      <root>
        <mxCell id="0" />
        <mxCell id="1" parent="0" />
        <mxCell id="z1fPCmr1SDwTJQNSFPKF-20" style="edgeStyle=orthogonalEdgeStyle;rounded=0;orthogonalLoop=1;jettySize=auto;html=1;exitX=1;exitY=0.5;exitDx=0;exitDy=0;entryX=0;entryY=0.5;entryDx=0;entryDy=0;endArrow=ERoneToMany;endFill=0;startArrow=ERmandOne;startFill=0;" edge="1" parent="1" source="OINPEeUIZmkubjWZZjVU-1" target="OINPEeUIZmkubjWZZjVU-2">
          <mxGeometry relative="1" as="geometry" />
        </mxCell>
        <mxCell id="OINPEeUIZmkubjWZZjVU-1" value="AnimalType" style="whiteSpace=wrap;html=1;align=center;" parent="1" vertex="1">
          <mxGeometry x="-460" y="30" width="100" height="40" as="geometry" />
        </mxCell>
        <mxCell id="z1fPCmr1SDwTJQNSFPKF-25" style="edgeStyle=orthogonalEdgeStyle;rounded=0;orthogonalLoop=1;jettySize=auto;html=1;exitX=1;exitY=0.5;exitDx=0;exitDy=0;entryX=0;entryY=0.5;entryDx=0;entryDy=0;endArrow=ERoneToMany;endFill=0;startArrow=ERzeroToMany;startFill=0;" edge="1" parent="1" source="OINPEeUIZmkubjWZZjVU-2" target="z1fPCmr1SDwTJQNSFPKF-1">
          <mxGeometry relative="1" as="geometry" />
        </mxCell>
        <mxCell id="OINPEeUIZmkubjWZZjVU-2" value="Animal" style="whiteSpace=wrap;html=1;align=center;" parent="1" vertex="1">
          <mxGeometry y="30" width="100" height="40" as="geometry" />
        </mxCell>
        <mxCell id="OINPEeUIZmkubjWZZjVU-3" value="TypeID" style="ellipse;whiteSpace=wrap;html=1;align=center;fontStyle=4" parent="1" vertex="1">
          <mxGeometry x="-460" y="120" width="100" height="40" as="geometry" />
        </mxCell>
        <mxCell id="OINPEeUIZmkubjWZZjVU-5" value="TypeName" style="ellipse;whiteSpace=wrap;html=1;align=center;" parent="1" vertex="1">
          <mxGeometry x="-610" y="30" width="100" height="40" as="geometry" />
        </mxCell>
        <mxCell id="OINPEeUIZmkubjWZZjVU-6" value="AnimalID" style="ellipse;whiteSpace=wrap;html=1;align=center;fontStyle=4" parent="1" vertex="1">
          <mxGeometry x="120" y="-50" width="100" height="40" as="geometry" />
        </mxCell>
        <mxCell id="z1fPCmr1SDwTJQNSFPKF-21" style="edgeStyle=orthogonalEdgeStyle;rounded=0;orthogonalLoop=1;jettySize=auto;html=1;exitX=0.5;exitY=1;exitDx=0;exitDy=0;entryX=0.5;entryY=0;entryDx=0;entryDy=0;endArrow=ERoneToMany;endFill=0;startArrow=ERzeroToMany;startFill=0;" edge="1" parent="1" source="OINPEeUIZmkubjWZZjVU-7" target="OINPEeUIZmkubjWZZjVU-2">
          <mxGeometry relative="1" as="geometry" />
        </mxCell>
        <mxCell id="OINPEeUIZmkubjWZZjVU-7" value="Disease" style="whiteSpace=wrap;html=1;align=center;" parent="1" vertex="1">
          <mxGeometry y="-140" width="100" height="40" as="geometry" />
        </mxCell>
        <mxCell id="OINPEeUIZmkubjWZZjVU-8" value="AnimalName" style="ellipse;whiteSpace=wrap;html=1;align=center;" parent="1" vertex="1">
          <mxGeometry x="110" y="120" width="100" height="40" as="geometry" />
        </mxCell>
        <mxCell id="OINPEeUIZmkubjWZZjVU-9" value="&lt;u&gt;DiseaseName&lt;/u&gt;" style="ellipse;whiteSpace=wrap;html=1;align=center;" parent="1" vertex="1">
          <mxGeometry x="110" y="-230" width="100" height="40" as="geometry" />
        </mxCell>
        <mxCell id="OINPEeUIZmkubjWZZjVU-10" value="Duration" style="ellipse;whiteSpace=wrap;html=1;align=center;" parent="1" vertex="1">
          <mxGeometry x="-100" y="-230" width="100" height="40" as="geometry" />
        </mxCell>
        <mxCell id="OINPEeUIZmkubjWZZjVU-11" value="BeginningTime" style="ellipse;whiteSpace=wrap;html=1;align=center;" parent="1" vertex="1">
          <mxGeometry x="140" y="-140" width="100" height="40" as="geometry" />
        </mxCell>
        <mxCell id="OINPEeUIZmkubjWZZjVU-12" value="" style="endArrow=none;html=1;rounded=0;exitX=0.5;exitY=1;exitDx=0;exitDy=0;entryX=0.5;entryY=0;entryDx=0;entryDy=0;" parent="1" source="OINPEeUIZmkubjWZZjVU-9" target="OINPEeUIZmkubjWZZjVU-7" edge="1">
          <mxGeometry relative="1" as="geometry">
            <mxPoint x="-130" y="-40" as="sourcePoint" />
            <mxPoint x="30" y="-40" as="targetPoint" />
          </mxGeometry>
        </mxCell>
        <mxCell id="OINPEeUIZmkubjWZZjVU-13" value="" style="endArrow=none;html=1;rounded=0;exitX=0.5;exitY=1;exitDx=0;exitDy=0;entryX=0.5;entryY=0;entryDx=0;entryDy=0;" parent="1" source="OINPEeUIZmkubjWZZjVU-10" target="OINPEeUIZmkubjWZZjVU-7" edge="1">
          <mxGeometry relative="1" as="geometry">
            <mxPoint x="60" y="-160" as="sourcePoint" />
            <mxPoint x="60" y="-130" as="targetPoint" />
          </mxGeometry>
        </mxCell>
        <mxCell id="OINPEeUIZmkubjWZZjVU-14" value="" style="endArrow=none;html=1;rounded=0;exitX=1;exitY=0.5;exitDx=0;exitDy=0;entryX=0;entryY=0.5;entryDx=0;entryDy=0;" parent="1" source="OINPEeUIZmkubjWZZjVU-7" target="OINPEeUIZmkubjWZZjVU-11" edge="1">
          <mxGeometry relative="1" as="geometry">
            <mxPoint x="60" y="-60" as="sourcePoint" />
            <mxPoint x="60" y="-90" as="targetPoint" />
          </mxGeometry>
        </mxCell>
        <mxCell id="OINPEeUIZmkubjWZZjVU-15" value="Age" style="ellipse;whiteSpace=wrap;html=1;align=center;" parent="1" vertex="1">
          <mxGeometry x="-120" y="120" width="100" height="40" as="geometry" />
        </mxCell>
        <mxCell id="OINPEeUIZmkubjWZZjVU-16" value="Gender" style="ellipse;whiteSpace=wrap;html=1;align=center;" parent="1" vertex="1">
          <mxGeometry x="-120" y="-50" width="100" height="40" as="geometry" />
        </mxCell>
        <mxCell id="z1fPCmr1SDwTJQNSFPKF-23" style="edgeStyle=orthogonalEdgeStyle;rounded=0;orthogonalLoop=1;jettySize=auto;html=1;exitX=0.5;exitY=1;exitDx=0;exitDy=0;entryX=0.5;entryY=0;entryDx=0;entryDy=0;endArrow=ERoneToMany;endFill=0;startArrow=ERmandOne;startFill=0;" edge="1" parent="1" source="OINPEeUIZmkubjWZZjVU-17" target="OINPEeUIZmkubjWZZjVU-1">
          <mxGeometry relative="1" as="geometry" />
        </mxCell>
        <mxCell id="z1fPCmr1SDwTJQNSFPKF-24" style="edgeStyle=orthogonalEdgeStyle;rounded=0;orthogonalLoop=1;jettySize=auto;html=1;exitX=1;exitY=0.5;exitDx=0;exitDy=0;entryX=0;entryY=0.5;entryDx=0;entryDy=0;endArrow=ERoneToMany;endFill=0;startArrow=ERzeroToMany;startFill=0;" edge="1" parent="1" source="OINPEeUIZmkubjWZZjVU-17" target="OINPEeUIZmkubjWZZjVU-7">
          <mxGeometry relative="1" as="geometry" />
        </mxCell>
        <mxCell id="OINPEeUIZmkubjWZZjVU-17" value="TypeKeeper" style="whiteSpace=wrap;html=1;align=center;" parent="1" vertex="1">
          <mxGeometry x="-460" y="-140" width="100" height="40" as="geometry" />
        </mxCell>
        <mxCell id="OINPEeUIZmkubjWZZjVU-18" value="EmployeeID" style="ellipse;whiteSpace=wrap;html=1;align=center;fontStyle=4" parent="1" vertex="1">
          <mxGeometry x="-460" y="-210" width="100" height="40" as="geometry" />
        </mxCell>
        <mxCell id="OINPEeUIZmkubjWZZjVU-19" value="Name" style="ellipse;whiteSpace=wrap;html=1;align=center;" parent="1" vertex="1">
          <mxGeometry x="-600" y="-140" width="100" height="40" as="geometry" />
        </mxCell>
        <mxCell id="OINPEeUIZmkubjWZZjVU-20" value="SSN" style="ellipse;whiteSpace=wrap;html=1;align=center;" parent="1" vertex="1">
          <mxGeometry x="-310" y="-210" width="100" height="40" as="geometry" />
        </mxCell>
        <mxCell id="OINPEeUIZmkubjWZZjVU-21" value="Address" style="ellipse;whiteSpace=wrap;html=1;align=center;" parent="1" vertex="1">
          <mxGeometry x="-600" y="-80" width="100" height="40" as="geometry" />
        </mxCell>
        <mxCell id="OINPEeUIZmkubjWZZjVU-22" value="Phone" style="ellipse;whiteSpace=wrap;html=1;align=center;" parent="1" vertex="1">
          <mxGeometry x="-600" y="-200" width="100" height="40" as="geometry" />
        </mxCell>
        <mxCell id="OINPEeUIZmkubjWZZjVU-25" value="" style="endArrow=none;html=1;rounded=0;exitX=0;exitY=0.5;exitDx=0;exitDy=0;entryX=0.5;entryY=0;entryDx=0;entryDy=0;" parent="1" source="OINPEeUIZmkubjWZZjVU-6" target="OINPEeUIZmkubjWZZjVU-2" edge="1">
          <mxGeometry relative="1" as="geometry">
            <mxPoint x="-230" y="170" as="sourcePoint" />
            <mxPoint x="-70" y="170" as="targetPoint" />
          </mxGeometry>
        </mxCell>
        <mxCell id="OINPEeUIZmkubjWZZjVU-26" value="" style="endArrow=none;html=1;rounded=0;exitX=0.5;exitY=0;exitDx=0;exitDy=0;entryX=0.5;entryY=1;entryDx=0;entryDy=0;" parent="1" source="OINPEeUIZmkubjWZZjVU-8" target="OINPEeUIZmkubjWZZjVU-2" edge="1">
          <mxGeometry relative="1" as="geometry">
            <mxPoint x="60" as="sourcePoint" />
            <mxPoint x="60" y="40" as="targetPoint" />
            <Array as="points" />
          </mxGeometry>
        </mxCell>
        <mxCell id="OINPEeUIZmkubjWZZjVU-27" value="" style="endArrow=none;html=1;rounded=0;exitX=0.5;exitY=0;exitDx=0;exitDy=0;entryX=0.5;entryY=1;entryDx=0;entryDy=0;" parent="1" source="OINPEeUIZmkubjWZZjVU-15" target="OINPEeUIZmkubjWZZjVU-2" edge="1">
          <mxGeometry relative="1" as="geometry">
            <mxPoint x="160" y="60" as="sourcePoint" />
            <mxPoint x="110" y="60" as="targetPoint" />
          </mxGeometry>
        </mxCell>
        <mxCell id="OINPEeUIZmkubjWZZjVU-28" value="" style="endArrow=none;html=1;rounded=0;exitX=1;exitY=0.5;exitDx=0;exitDy=0;entryX=0.5;entryY=0;entryDx=0;entryDy=0;" parent="1" source="OINPEeUIZmkubjWZZjVU-16" target="OINPEeUIZmkubjWZZjVU-2" edge="1">
          <mxGeometry relative="1" as="geometry">
            <mxPoint x="60" y="120" as="sourcePoint" />
            <mxPoint x="60" y="80" as="targetPoint" />
          </mxGeometry>
        </mxCell>
        <mxCell id="OINPEeUIZmkubjWZZjVU-29" value="" style="endArrow=none;html=1;rounded=0;exitX=0;exitY=0.5;exitDx=0;exitDy=0;entryX=1;entryY=0.5;entryDx=0;entryDy=0;" parent="1" source="OINPEeUIZmkubjWZZjVU-1" target="OINPEeUIZmkubjWZZjVU-5" edge="1">
          <mxGeometry relative="1" as="geometry">
            <mxPoint x="-420" y="-130" as="sourcePoint" />
            <mxPoint x="-420" y="-170" as="targetPoint" />
            <Array as="points">
              <mxPoint x="-480" y="50" />
            </Array>
          </mxGeometry>
        </mxCell>
        <mxCell id="OINPEeUIZmkubjWZZjVU-33" value="" style="endArrow=none;html=1;rounded=0;exitX=0.5;exitY=1;exitDx=0;exitDy=0;entryX=0.5;entryY=0;entryDx=0;entryDy=0;" parent="1" source="OINPEeUIZmkubjWZZjVU-1" target="OINPEeUIZmkubjWZZjVU-3" edge="1">
          <mxGeometry relative="1" as="geometry">
            <mxPoint x="-350" y="100" as="sourcePoint" />
            <mxPoint x="-350" y="120" as="targetPoint" />
          </mxGeometry>
        </mxCell>
        <mxCell id="OINPEeUIZmkubjWZZjVU-34" value="" style="endArrow=none;html=1;rounded=0;exitX=0.5;exitY=1;exitDx=0;exitDy=0;" parent="1" source="OINPEeUIZmkubjWZZjVU-18" target="OINPEeUIZmkubjWZZjVU-17" edge="1">
          <mxGeometry relative="1" as="geometry">
            <mxPoint x="-470" y="-315" as="sourcePoint" />
            <mxPoint x="-310" y="-315" as="targetPoint" />
          </mxGeometry>
        </mxCell>
        <mxCell id="OINPEeUIZmkubjWZZjVU-35" value="" style="endArrow=none;html=1;rounded=0;exitX=1;exitY=0.5;exitDx=0;exitDy=0;entryX=0;entryY=0.5;entryDx=0;entryDy=0;" parent="1" source="OINPEeUIZmkubjWZZjVU-19" target="OINPEeUIZmkubjWZZjVU-17" edge="1">
          <mxGeometry relative="1" as="geometry">
            <mxPoint x="-400" y="-175" as="sourcePoint" />
            <mxPoint x="-400" y="-135" as="targetPoint" />
          </mxGeometry>
        </mxCell>
        <mxCell id="OINPEeUIZmkubjWZZjVU-36" value="" style="endArrow=none;html=1;rounded=0;exitX=0;exitY=1;exitDx=0;exitDy=0;entryX=1;entryY=0;entryDx=0;entryDy=0;" parent="1" source="OINPEeUIZmkubjWZZjVU-20" target="OINPEeUIZmkubjWZZjVU-17" edge="1">
          <mxGeometry relative="1" as="geometry">
            <mxPoint x="-300" y="-115" as="sourcePoint" />
            <mxPoint x="-350" y="-115" as="targetPoint" />
          </mxGeometry>
        </mxCell>
        <mxCell id="OINPEeUIZmkubjWZZjVU-37" value="" style="endArrow=none;html=1;rounded=0;exitX=1;exitY=0.5;exitDx=0;exitDy=0;entryX=0;entryY=0;entryDx=0;entryDy=0;" parent="1" source="OINPEeUIZmkubjWZZjVU-22" target="OINPEeUIZmkubjWZZjVU-17" edge="1">
          <mxGeometry relative="1" as="geometry">
            <mxPoint x="-320" y="-45" as="sourcePoint" />
            <mxPoint x="-400" y="-95" as="targetPoint" />
          </mxGeometry>
        </mxCell>
        <mxCell id="OINPEeUIZmkubjWZZjVU-38" value="" style="endArrow=none;html=1;rounded=0;exitX=0;exitY=1;exitDx=0;exitDy=0;entryX=1;entryY=0.5;entryDx=0;entryDy=0;" parent="1" source="OINPEeUIZmkubjWZZjVU-17" target="OINPEeUIZmkubjWZZjVU-21" edge="1">
          <mxGeometry relative="1" as="geometry">
            <mxPoint x="-400" y="-175" as="sourcePoint" />
            <mxPoint x="-400" y="-135" as="targetPoint" />
          </mxGeometry>
        </mxCell>
        <mxCell id="z1fPCmr1SDwTJQNSFPKF-26" style="edgeStyle=orthogonalEdgeStyle;rounded=0;orthogonalLoop=1;jettySize=auto;html=1;exitX=0.5;exitY=0;exitDx=0;exitDy=0;entryX=0.5;entryY=1;entryDx=0;entryDy=0;endArrow=ERoneToMany;endFill=0;startArrow=ERzeroToMany;startFill=0;" edge="1" parent="1" source="z1fPCmr1SDwTJQNSFPKF-1" target="z1fPCmr1SDwTJQNSFPKF-8">
          <mxGeometry relative="1" as="geometry" />
        </mxCell>
        <mxCell id="z1fPCmr1SDwTJQNSFPKF-1" value="Cage" style="whiteSpace=wrap;html=1;align=center;" vertex="1" parent="1">
          <mxGeometry x="430" y="30" width="100" height="40" as="geometry" />
        </mxCell>
        <mxCell id="z1fPCmr1SDwTJQNSFPKF-2" value="CageID" style="ellipse;whiteSpace=wrap;html=1;align=center;fontStyle=4" vertex="1" parent="1">
          <mxGeometry x="570" y="30" width="100" height="40" as="geometry" />
        </mxCell>
        <mxCell id="z1fPCmr1SDwTJQNSFPKF-3" value="Space" style="ellipse;whiteSpace=wrap;html=1;align=center;" vertex="1" parent="1">
          <mxGeometry x="520" y="120" width="100" height="40" as="geometry" />
        </mxCell>
        <mxCell id="z1fPCmr1SDwTJQNSFPKF-4" value="Height" style="ellipse;whiteSpace=wrap;html=1;align=center;" vertex="1" parent="1">
          <mxGeometry x="360" y="120" width="100" height="40" as="geometry" />
        </mxCell>
        <mxCell id="z1fPCmr1SDwTJQNSFPKF-5" value="" style="endArrow=none;html=1;rounded=0;entryX=0.5;entryY=0;entryDx=0;entryDy=0;exitX=0.5;exitY=1;exitDx=0;exitDy=0;" edge="1" parent="1" source="z1fPCmr1SDwTJQNSFPKF-1" target="z1fPCmr1SDwTJQNSFPKF-3">
          <mxGeometry width="50" height="50" relative="1" as="geometry">
            <mxPoint x="535" y="265" as="sourcePoint" />
            <mxPoint x="585" y="215" as="targetPoint" />
          </mxGeometry>
        </mxCell>
        <mxCell id="z1fPCmr1SDwTJQNSFPKF-6" value="" style="endArrow=none;html=1;rounded=0;exitX=1;exitY=0.5;exitDx=0;exitDy=0;entryX=0;entryY=0.5;entryDx=0;entryDy=0;" edge="1" parent="1" source="z1fPCmr1SDwTJQNSFPKF-1" target="z1fPCmr1SDwTJQNSFPKF-2">
          <mxGeometry width="50" height="50" relative="1" as="geometry">
            <mxPoint x="700" y="-50" as="sourcePoint" />
            <mxPoint x="580" y="110" as="targetPoint" />
          </mxGeometry>
        </mxCell>
        <mxCell id="z1fPCmr1SDwTJQNSFPKF-7" value="" style="endArrow=none;html=1;rounded=0;entryX=0.5;entryY=0;entryDx=0;entryDy=0;exitX=0.5;exitY=1;exitDx=0;exitDy=0;" edge="1" parent="1" source="z1fPCmr1SDwTJQNSFPKF-1" target="z1fPCmr1SDwTJQNSFPKF-4">
          <mxGeometry width="50" height="50" relative="1" as="geometry">
            <mxPoint x="485" y="45" as="sourcePoint" />
            <mxPoint x="485" y="5" as="targetPoint" />
          </mxGeometry>
        </mxCell>
        <mxCell id="z1fPCmr1SDwTJQNSFPKF-8" value="CageKeeper" style="whiteSpace=wrap;html=1;align=center;" vertex="1" parent="1">
          <mxGeometry x="430" y="-140" width="100" height="40" as="geometry" />
        </mxCell>
        <mxCell id="z1fPCmr1SDwTJQNSFPKF-9" value="EmployeeID" style="ellipse;whiteSpace=wrap;html=1;align=center;fontStyle=4" vertex="1" parent="1">
          <mxGeometry x="430" y="-225" width="100" height="40" as="geometry" />
        </mxCell>
        <mxCell id="z1fPCmr1SDwTJQNSFPKF-10" value="Name" style="ellipse;whiteSpace=wrap;html=1;align=center;" vertex="1" parent="1">
          <mxGeometry x="580" y="-140" width="100" height="40" as="geometry" />
        </mxCell>
        <mxCell id="z1fPCmr1SDwTJQNSFPKF-11" value="SSN" style="ellipse;whiteSpace=wrap;html=1;align=center;" vertex="1" parent="1">
          <mxGeometry x="560" y="-225" width="100" height="40" as="geometry" />
        </mxCell>
        <mxCell id="z1fPCmr1SDwTJQNSFPKF-12" value="Address" style="ellipse;whiteSpace=wrap;html=1;align=center;" vertex="1" parent="1">
          <mxGeometry x="290" y="-140" width="100" height="40" as="geometry" />
        </mxCell>
        <mxCell id="z1fPCmr1SDwTJQNSFPKF-13" value="Phone" style="ellipse;whiteSpace=wrap;html=1;align=center;" vertex="1" parent="1">
          <mxGeometry x="300" y="-225" width="100" height="40" as="geometry" />
        </mxCell>
        <mxCell id="z1fPCmr1SDwTJQNSFPKF-14" value="" style="endArrow=none;html=1;rounded=0;exitX=0.5;exitY=1;exitDx=0;exitDy=0;" edge="1" parent="1" source="z1fPCmr1SDwTJQNSFPKF-9" target="z1fPCmr1SDwTJQNSFPKF-8">
          <mxGeometry relative="1" as="geometry">
            <mxPoint x="420" y="-310" as="sourcePoint" />
            <mxPoint x="580" y="-310" as="targetPoint" />
          </mxGeometry>
        </mxCell>
        <mxCell id="z1fPCmr1SDwTJQNSFPKF-15" value="" style="endArrow=none;html=1;rounded=0;exitX=0;exitY=0.5;exitDx=0;exitDy=0;entryX=1;entryY=0.5;entryDx=0;entryDy=0;" edge="1" parent="1" source="z1fPCmr1SDwTJQNSFPKF-10" target="z1fPCmr1SDwTJQNSFPKF-8">
          <mxGeometry relative="1" as="geometry">
            <mxPoint x="490" y="-170" as="sourcePoint" />
            <mxPoint x="490" y="-130" as="targetPoint" />
          </mxGeometry>
        </mxCell>
        <mxCell id="z1fPCmr1SDwTJQNSFPKF-16" value="" style="endArrow=none;html=1;rounded=0;exitX=0;exitY=1;exitDx=0;exitDy=0;entryX=0.5;entryY=0;entryDx=0;entryDy=0;" edge="1" parent="1" source="z1fPCmr1SDwTJQNSFPKF-11" target="z1fPCmr1SDwTJQNSFPKF-8">
          <mxGeometry relative="1" as="geometry">
            <mxPoint x="590" y="-110" as="sourcePoint" />
            <mxPoint x="540" y="-110" as="targetPoint" />
          </mxGeometry>
        </mxCell>
        <mxCell id="z1fPCmr1SDwTJQNSFPKF-17" value="" style="endArrow=none;html=1;rounded=0;exitX=1;exitY=1;exitDx=0;exitDy=0;entryX=0.5;entryY=0;entryDx=0;entryDy=0;" edge="1" parent="1" source="z1fPCmr1SDwTJQNSFPKF-13" target="z1fPCmr1SDwTJQNSFPKF-8">
          <mxGeometry relative="1" as="geometry">
            <mxPoint x="570" y="-40" as="sourcePoint" />
            <mxPoint x="490" y="-90" as="targetPoint" />
          </mxGeometry>
        </mxCell>
        <mxCell id="z1fPCmr1SDwTJQNSFPKF-18" value="" style="endArrow=none;html=1;rounded=0;exitX=0;exitY=0.5;exitDx=0;exitDy=0;entryX=1;entryY=0.5;entryDx=0;entryDy=0;" edge="1" parent="1" source="z1fPCmr1SDwTJQNSFPKF-8" target="z1fPCmr1SDwTJQNSFPKF-12">
          <mxGeometry relative="1" as="geometry">
            <mxPoint x="490" y="-170" as="sourcePoint" />
            <mxPoint x="490" y="-130" as="targetPoint" />
          </mxGeometry>
        </mxCell>
        <mxCell id="z1fPCmr1SDwTJQNSFPKF-28" value="&lt;u&gt;TypeID&lt;/u&gt;" style="whiteSpace=wrap;html=1;align=center;" vertex="1" parent="1">
          <mxGeometry x="-520" y="380" width="100" height="40" as="geometry" />
        </mxCell>
        <mxCell id="z1fPCmr1SDwTJQNSFPKF-29" value="TypeName" style="whiteSpace=wrap;html=1;align=center;" vertex="1" parent="1">
          <mxGeometry x="-420" y="380" width="100" height="40" as="geometry" />
        </mxCell>
        <mxCell id="z1fPCmr1SDwTJQNSFPKF-30" value="AnimalType" style="text;html=1;align=center;verticalAlign=middle;resizable=0;points=[];autosize=1;strokeColor=none;fillColor=none;" vertex="1" parent="1">
          <mxGeometry x="-530" y="350" width="90" height="30" as="geometry" />
        </mxCell>
        <mxCell id="z1fPCmr1SDwTJQNSFPKF-31" value="&lt;u&gt;AnimalID&lt;/u&gt;" style="whiteSpace=wrap;html=1;align=center;" vertex="1" parent="1">
          <mxGeometry x="-520" y="590" width="100" height="40" as="geometry" />
        </mxCell>
        <mxCell id="z1fPCmr1SDwTJQNSFPKF-32" value="AnimalName" style="whiteSpace=wrap;html=1;align=center;" vertex="1" parent="1">
          <mxGeometry x="-120" y="590" width="100" height="40" as="geometry" />
        </mxCell>
        <mxCell id="z1fPCmr1SDwTJQNSFPKF-63" style="edgeStyle=orthogonalEdgeStyle;rounded=0;orthogonalLoop=1;jettySize=auto;html=1;exitX=0.5;exitY=0;exitDx=0;exitDy=0;entryX=0;entryY=0.5;entryDx=0;entryDy=0;" edge="1" parent="1" source="z1fPCmr1SDwTJQNSFPKF-33" target="z1fPCmr1SDwTJQNSFPKF-28">
          <mxGeometry relative="1" as="geometry">
            <Array as="points">
              <mxPoint x="-370" y="540" />
              <mxPoint x="-540" y="540" />
              <mxPoint x="-540" y="400" />
            </Array>
          </mxGeometry>
        </mxCell>
        <mxCell id="z1fPCmr1SDwTJQNSFPKF-33" value="TypeID" style="whiteSpace=wrap;html=1;align=center;" vertex="1" parent="1">
          <mxGeometry x="-420" y="590" width="100" height="40" as="geometry" />
        </mxCell>
        <mxCell id="z1fPCmr1SDwTJQNSFPKF-34" value="Gender" style="whiteSpace=wrap;html=1;align=center;" vertex="1" parent="1">
          <mxGeometry x="-20" y="590" width="100" height="40" as="geometry" />
        </mxCell>
        <mxCell id="z1fPCmr1SDwTJQNSFPKF-35" value="Age" style="whiteSpace=wrap;html=1;align=center;" vertex="1" parent="1">
          <mxGeometry x="80" y="590" width="100" height="40" as="geometry" />
        </mxCell>
        <mxCell id="z1fPCmr1SDwTJQNSFPKF-37" value="Animal&lt;br&gt;" style="text;html=1;align=center;verticalAlign=middle;resizable=0;points=[];autosize=1;strokeColor=none;fillColor=none;" vertex="1" parent="1">
          <mxGeometry x="-530" y="560" width="60" height="30" as="geometry" />
        </mxCell>
        <mxCell id="z1fPCmr1SDwTJQNSFPKF-38" value="Exercise 1" style="text;html=1;strokeColor=none;fillColor=none;align=center;verticalAlign=middle;whiteSpace=wrap;rounded=0;fontSize=24;fontStyle=1" vertex="1" parent="1">
          <mxGeometry x="-600" y="-270" width="140" height="30" as="geometry" />
        </mxCell>
        <mxCell id="z1fPCmr1SDwTJQNSFPKF-39" value="&lt;u&gt;CageID&lt;/u&gt;" style="whiteSpace=wrap;html=1;align=center;" vertex="1" parent="1">
          <mxGeometry x="-520" y="700" width="100" height="40" as="geometry" />
        </mxCell>
        <mxCell id="z1fPCmr1SDwTJQNSFPKF-40" value="Height" style="whiteSpace=wrap;html=1;align=center;" vertex="1" parent="1">
          <mxGeometry x="-420" y="700" width="100" height="40" as="geometry" />
        </mxCell>
        <mxCell id="z1fPCmr1SDwTJQNSFPKF-41" value="Space" style="whiteSpace=wrap;html=1;align=center;" vertex="1" parent="1">
          <mxGeometry x="-320" y="700" width="100" height="40" as="geometry" />
        </mxCell>
        <mxCell id="z1fPCmr1SDwTJQNSFPKF-42" value="Cage" style="text;html=1;align=center;verticalAlign=middle;resizable=0;points=[];autosize=1;strokeColor=none;fillColor=none;" vertex="1" parent="1">
          <mxGeometry x="-530" y="670" width="50" height="30" as="geometry" />
        </mxCell>
        <mxCell id="z1fPCmr1SDwTJQNSFPKF-44" style="edgeStyle=orthogonalEdgeStyle;rounded=0;orthogonalLoop=1;jettySize=auto;html=1;exitX=0.5;exitY=1;exitDx=0;exitDy=0;entryX=0.75;entryY=0;entryDx=0;entryDy=0;" edge="1" parent="1" source="z1fPCmr1SDwTJQNSFPKF-43" target="z1fPCmr1SDwTJQNSFPKF-39">
          <mxGeometry relative="1" as="geometry" />
        </mxCell>
        <mxCell id="z1fPCmr1SDwTJQNSFPKF-43" value="CageID" style="whiteSpace=wrap;html=1;align=center;" vertex="1" parent="1">
          <mxGeometry x="-320" y="590" width="100" height="40" as="geometry" />
        </mxCell>
        <mxCell id="z1fPCmr1SDwTJQNSFPKF-45" value="&lt;u&gt;DiseaseName&lt;/u&gt;" style="whiteSpace=wrap;html=1;align=center;" vertex="1" parent="1">
          <mxGeometry x="-520" y="460" width="100" height="40" as="geometry" />
        </mxCell>
        <mxCell id="z1fPCmr1SDwTJQNSFPKF-46" value="BeginningTime" style="whiteSpace=wrap;html=1;align=center;" vertex="1" parent="1">
          <mxGeometry x="-420" y="460" width="100" height="40" as="geometry" />
        </mxCell>
        <mxCell id="z1fPCmr1SDwTJQNSFPKF-47" value="Duration" style="whiteSpace=wrap;html=1;align=center;" vertex="1" parent="1">
          <mxGeometry x="-320" y="460" width="100" height="40" as="geometry" />
        </mxCell>
        <mxCell id="z1fPCmr1SDwTJQNSFPKF-48" value="Disease" style="text;html=1;align=center;verticalAlign=middle;resizable=0;points=[];autosize=1;strokeColor=none;fillColor=none;" vertex="1" parent="1">
          <mxGeometry x="-530" y="430" width="70" height="30" as="geometry" />
        </mxCell>
        <mxCell id="z1fPCmr1SDwTJQNSFPKF-62" style="edgeStyle=orthogonalEdgeStyle;rounded=0;orthogonalLoop=1;jettySize=auto;html=1;exitX=0.5;exitY=0;exitDx=0;exitDy=0;entryX=0.5;entryY=1;entryDx=0;entryDy=0;" edge="1" parent="1" source="z1fPCmr1SDwTJQNSFPKF-49" target="z1fPCmr1SDwTJQNSFPKF-45">
          <mxGeometry relative="1" as="geometry">
            <Array as="points">
              <mxPoint x="-170" y="520" />
              <mxPoint x="-470" y="520" />
            </Array>
          </mxGeometry>
        </mxCell>
        <mxCell id="z1fPCmr1SDwTJQNSFPKF-49" value="DiseaseName" style="whiteSpace=wrap;html=1;align=center;" vertex="1" parent="1">
          <mxGeometry x="-220" y="590" width="100" height="40" as="geometry" />
        </mxCell>
        <mxCell id="z1fPCmr1SDwTJQNSFPKF-52" value="&lt;u&gt;EmployeeID&lt;/u&gt;" style="whiteSpace=wrap;html=1;align=center;" vertex="1" parent="1">
          <mxGeometry x="-520" y="280" width="100" height="40" as="geometry" />
        </mxCell>
        <mxCell id="z1fPCmr1SDwTJQNSFPKF-53" value="SSN" style="whiteSpace=wrap;html=1;align=center;" vertex="1" parent="1">
          <mxGeometry x="-220" y="280" width="100" height="40" as="geometry" />
        </mxCell>
        <mxCell id="z1fPCmr1SDwTJQNSFPKF-54" value="Name" style="whiteSpace=wrap;html=1;align=center;" vertex="1" parent="1">
          <mxGeometry x="-120" y="280" width="100" height="40" as="geometry" />
        </mxCell>
        <mxCell id="z1fPCmr1SDwTJQNSFPKF-55" value="TypeKeeper" style="text;html=1;align=center;verticalAlign=middle;resizable=0;points=[];autosize=1;strokeColor=none;fillColor=none;" vertex="1" parent="1">
          <mxGeometry x="-530" y="250" width="90" height="30" as="geometry" />
        </mxCell>
        <mxCell id="z1fPCmr1SDwTJQNSFPKF-56" value="Phone" style="whiteSpace=wrap;html=1;align=center;" vertex="1" parent="1">
          <mxGeometry x="-20" y="280" width="100" height="40" as="geometry" />
        </mxCell>
        <mxCell id="z1fPCmr1SDwTJQNSFPKF-57" value="Address" style="whiteSpace=wrap;html=1;align=center;" vertex="1" parent="1">
          <mxGeometry x="80" y="280" width="100" height="40" as="geometry" />
        </mxCell>
        <mxCell id="z1fPCmr1SDwTJQNSFPKF-59" style="edgeStyle=orthogonalEdgeStyle;rounded=0;orthogonalLoop=1;jettySize=auto;html=1;exitX=0.5;exitY=1;exitDx=0;exitDy=0;entryX=0.75;entryY=0;entryDx=0;entryDy=0;" edge="1" parent="1" source="z1fPCmr1SDwTJQNSFPKF-58" target="z1fPCmr1SDwTJQNSFPKF-28">
          <mxGeometry relative="1" as="geometry">
            <mxPoint x="-370" y="370" as="targetPoint" />
          </mxGeometry>
        </mxCell>
        <mxCell id="z1fPCmr1SDwTJQNSFPKF-58" value="TypeID" style="whiteSpace=wrap;html=1;align=center;" vertex="1" parent="1">
          <mxGeometry x="-420" y="280" width="100" height="40" as="geometry" />
        </mxCell>
        <mxCell id="z1fPCmr1SDwTJQNSFPKF-64" style="edgeStyle=orthogonalEdgeStyle;rounded=0;orthogonalLoop=1;jettySize=auto;html=1;exitX=0.5;exitY=1;exitDx=0;exitDy=0;entryX=0.75;entryY=0;entryDx=0;entryDy=0;" edge="1" parent="1" source="z1fPCmr1SDwTJQNSFPKF-60" target="z1fPCmr1SDwTJQNSFPKF-45">
          <mxGeometry relative="1" as="geometry">
            <Array as="points">
              <mxPoint x="-270" y="440" />
              <mxPoint x="-445" y="440" />
            </Array>
          </mxGeometry>
        </mxCell>
        <mxCell id="z1fPCmr1SDwTJQNSFPKF-60" value="DiseaseName" style="whiteSpace=wrap;html=1;align=center;" vertex="1" parent="1">
          <mxGeometry x="-320" y="280" width="100" height="40" as="geometry" />
        </mxCell>
        <mxCell id="z1fPCmr1SDwTJQNSFPKF-65" value="&lt;u&gt;EmployeeID&lt;/u&gt;" style="whiteSpace=wrap;html=1;align=center;" vertex="1" parent="1">
          <mxGeometry x="-520" y="810" width="100" height="40" as="geometry" />
        </mxCell>
        <mxCell id="z1fPCmr1SDwTJQNSFPKF-66" value="SSN" style="whiteSpace=wrap;html=1;align=center;" vertex="1" parent="1">
          <mxGeometry x="-320" y="810" width="100" height="40" as="geometry" />
        </mxCell>
        <mxCell id="z1fPCmr1SDwTJQNSFPKF-67" value="Name" style="whiteSpace=wrap;html=1;align=center;" vertex="1" parent="1">
          <mxGeometry x="-220" y="810" width="100" height="40" as="geometry" />
        </mxCell>
        <mxCell id="z1fPCmr1SDwTJQNSFPKF-68" value="TypeKeeper" style="text;html=1;align=center;verticalAlign=middle;resizable=0;points=[];autosize=1;strokeColor=none;fillColor=none;" vertex="1" parent="1">
          <mxGeometry x="-530" y="780" width="90" height="30" as="geometry" />
        </mxCell>
        <mxCell id="z1fPCmr1SDwTJQNSFPKF-69" value="Phone" style="whiteSpace=wrap;html=1;align=center;" vertex="1" parent="1">
          <mxGeometry x="-120" y="810" width="100" height="40" as="geometry" />
        </mxCell>
        <mxCell id="z1fPCmr1SDwTJQNSFPKF-70" value="Address" style="whiteSpace=wrap;html=1;align=center;" vertex="1" parent="1">
          <mxGeometry x="-20" y="810" width="100" height="40" as="geometry" />
        </mxCell>
        <mxCell id="z1fPCmr1SDwTJQNSFPKF-73" style="edgeStyle=orthogonalEdgeStyle;rounded=0;orthogonalLoop=1;jettySize=auto;html=1;exitX=0.5;exitY=0;exitDx=0;exitDy=0;entryX=0.5;entryY=1;entryDx=0;entryDy=0;" edge="1" parent="1" source="z1fPCmr1SDwTJQNSFPKF-71" target="z1fPCmr1SDwTJQNSFPKF-39">
          <mxGeometry relative="1" as="geometry" />
        </mxCell>
        <mxCell id="z1fPCmr1SDwTJQNSFPKF-71" value="CageID" style="whiteSpace=wrap;html=1;align=center;" vertex="1" parent="1">
          <mxGeometry x="-420" y="810" width="100" height="40" as="geometry" />
        </mxCell>
        <mxCell id="z1fPCmr1SDwTJQNSFPKF-74" value="Exercise 2" style="text;html=1;strokeColor=none;fillColor=none;align=center;verticalAlign=middle;whiteSpace=wrap;rounded=0;fontSize=24;fontStyle=1" vertex="1" parent="1">
          <mxGeometry x="-600" y="940" width="140" height="30" as="geometry" />
        </mxCell>
        <mxCell id="z1fPCmr1SDwTJQNSFPKF-75" value="Customer" style="shape=table;startSize=30;container=1;collapsible=1;childLayout=tableLayout;fixedRows=1;rowLines=0;fontStyle=1;align=center;resizeLast=1;html=1;" vertex="1" parent="1">
          <mxGeometry x="-600" y="1000" width="180" height="210" as="geometry" />
        </mxCell>
        <mxCell id="z1fPCmr1SDwTJQNSFPKF-76" value="" style="shape=tableRow;horizontal=0;startSize=0;swimlaneHead=0;swimlaneBody=0;fillColor=none;collapsible=0;dropTarget=0;points=[[0,0.5],[1,0.5]];portConstraint=eastwest;top=0;left=0;right=0;bottom=1;" vertex="1" parent="z1fPCmr1SDwTJQNSFPKF-75">
          <mxGeometry y="30" width="180" height="30" as="geometry" />
        </mxCell>
        <mxCell id="z1fPCmr1SDwTJQNSFPKF-77" value="PK" style="shape=partialRectangle;connectable=0;fillColor=none;top=0;left=0;bottom=0;right=0;fontStyle=1;overflow=hidden;whiteSpace=wrap;html=1;" vertex="1" parent="z1fPCmr1SDwTJQNSFPKF-76">
          <mxGeometry width="30" height="30" as="geometry">
            <mxRectangle width="30" height="30" as="alternateBounds" />
          </mxGeometry>
        </mxCell>
        <mxCell id="z1fPCmr1SDwTJQNSFPKF-78" value="CustID" style="shape=partialRectangle;connectable=0;fillColor=none;top=0;left=0;bottom=0;right=0;align=left;spacingLeft=6;fontStyle=5;overflow=hidden;whiteSpace=wrap;html=1;" vertex="1" parent="z1fPCmr1SDwTJQNSFPKF-76">
          <mxGeometry x="30" width="150" height="30" as="geometry">
            <mxRectangle width="150" height="30" as="alternateBounds" />
          </mxGeometry>
        </mxCell>
        <mxCell id="z1fPCmr1SDwTJQNSFPKF-79" value="" style="shape=tableRow;horizontal=0;startSize=0;swimlaneHead=0;swimlaneBody=0;fillColor=none;collapsible=0;dropTarget=0;points=[[0,0.5],[1,0.5]];portConstraint=eastwest;top=0;left=0;right=0;bottom=0;" vertex="1" parent="z1fPCmr1SDwTJQNSFPKF-75">
          <mxGeometry y="60" width="180" height="30" as="geometry" />
        </mxCell>
        <mxCell id="z1fPCmr1SDwTJQNSFPKF-80" value="" style="shape=partialRectangle;connectable=0;fillColor=none;top=0;left=0;bottom=0;right=0;editable=1;overflow=hidden;whiteSpace=wrap;html=1;" vertex="1" parent="z1fPCmr1SDwTJQNSFPKF-79">
          <mxGeometry width="30" height="30" as="geometry">
            <mxRectangle width="30" height="30" as="alternateBounds" />
          </mxGeometry>
        </mxCell>
        <mxCell id="z1fPCmr1SDwTJQNSFPKF-81" value="CustName" style="shape=partialRectangle;connectable=0;fillColor=none;top=0;left=0;bottom=0;right=0;align=left;spacingLeft=6;overflow=hidden;whiteSpace=wrap;html=1;" vertex="1" parent="z1fPCmr1SDwTJQNSFPKF-79">
          <mxGeometry x="30" width="150" height="30" as="geometry">
            <mxRectangle width="150" height="30" as="alternateBounds" />
          </mxGeometry>
        </mxCell>
        <mxCell id="z1fPCmr1SDwTJQNSFPKF-82" value="" style="shape=tableRow;horizontal=0;startSize=0;swimlaneHead=0;swimlaneBody=0;fillColor=none;collapsible=0;dropTarget=0;points=[[0,0.5],[1,0.5]];portConstraint=eastwest;top=0;left=0;right=0;bottom=0;" vertex="1" parent="z1fPCmr1SDwTJQNSFPKF-75">
          <mxGeometry y="90" width="180" height="30" as="geometry" />
        </mxCell>
        <mxCell id="z1fPCmr1SDwTJQNSFPKF-83" value="" style="shape=partialRectangle;connectable=0;fillColor=none;top=0;left=0;bottom=0;right=0;editable=1;overflow=hidden;whiteSpace=wrap;html=1;" vertex="1" parent="z1fPCmr1SDwTJQNSFPKF-82">
          <mxGeometry width="30" height="30" as="geometry">
            <mxRectangle width="30" height="30" as="alternateBounds" />
          </mxGeometry>
        </mxCell>
        <mxCell id="z1fPCmr1SDwTJQNSFPKF-84" value="CustAddress" style="shape=partialRectangle;connectable=0;fillColor=none;top=0;left=0;bottom=0;right=0;align=left;spacingLeft=6;overflow=hidden;whiteSpace=wrap;html=1;" vertex="1" parent="z1fPCmr1SDwTJQNSFPKF-82">
          <mxGeometry x="30" width="150" height="30" as="geometry">
            <mxRectangle width="150" height="30" as="alternateBounds" />
          </mxGeometry>
        </mxCell>
        <mxCell id="z1fPCmr1SDwTJQNSFPKF-85" value="" style="shape=tableRow;horizontal=0;startSize=0;swimlaneHead=0;swimlaneBody=0;fillColor=none;collapsible=0;dropTarget=0;points=[[0,0.5],[1,0.5]];portConstraint=eastwest;top=0;left=0;right=0;bottom=0;" vertex="1" parent="z1fPCmr1SDwTJQNSFPKF-75">
          <mxGeometry y="120" width="180" height="30" as="geometry" />
        </mxCell>
        <mxCell id="z1fPCmr1SDwTJQNSFPKF-86" value="" style="shape=partialRectangle;connectable=0;fillColor=none;top=0;left=0;bottom=0;right=0;editable=1;overflow=hidden;whiteSpace=wrap;html=1;" vertex="1" parent="z1fPCmr1SDwTJQNSFPKF-85">
          <mxGeometry width="30" height="30" as="geometry">
            <mxRectangle width="30" height="30" as="alternateBounds" />
          </mxGeometry>
        </mxCell>
        <mxCell id="z1fPCmr1SDwTJQNSFPKF-87" value="CustSuburd" style="shape=partialRectangle;connectable=0;fillColor=none;top=0;left=0;bottom=0;right=0;align=left;spacingLeft=6;overflow=hidden;whiteSpace=wrap;html=1;" vertex="1" parent="z1fPCmr1SDwTJQNSFPKF-85">
          <mxGeometry x="30" width="150" height="30" as="geometry">
            <mxRectangle width="150" height="30" as="alternateBounds" />
          </mxGeometry>
        </mxCell>
        <mxCell id="z1fPCmr1SDwTJQNSFPKF-88" value="" style="shape=tableRow;horizontal=0;startSize=0;swimlaneHead=0;swimlaneBody=0;fillColor=none;collapsible=0;dropTarget=0;points=[[0,0.5],[1,0.5]];portConstraint=eastwest;top=0;left=0;right=0;bottom=0;" vertex="1" parent="z1fPCmr1SDwTJQNSFPKF-75">
          <mxGeometry y="150" width="180" height="30" as="geometry" />
        </mxCell>
        <mxCell id="z1fPCmr1SDwTJQNSFPKF-89" value="" style="shape=partialRectangle;connectable=0;fillColor=none;top=0;left=0;bottom=0;right=0;editable=1;overflow=hidden;" vertex="1" parent="z1fPCmr1SDwTJQNSFPKF-88">
          <mxGeometry width="30" height="30" as="geometry">
            <mxRectangle width="30" height="30" as="alternateBounds" />
          </mxGeometry>
        </mxCell>
        <mxCell id="z1fPCmr1SDwTJQNSFPKF-90" value="CustState" style="shape=partialRectangle;connectable=0;fillColor=none;top=0;left=0;bottom=0;right=0;align=left;spacingLeft=6;overflow=hidden;" vertex="1" parent="z1fPCmr1SDwTJQNSFPKF-88">
          <mxGeometry x="30" width="150" height="30" as="geometry">
            <mxRectangle width="150" height="30" as="alternateBounds" />
          </mxGeometry>
        </mxCell>
        <mxCell id="z1fPCmr1SDwTJQNSFPKF-91" value="" style="shape=tableRow;horizontal=0;startSize=0;swimlaneHead=0;swimlaneBody=0;fillColor=none;collapsible=0;dropTarget=0;points=[[0,0.5],[1,0.5]];portConstraint=eastwest;top=0;left=0;right=0;bottom=0;" vertex="1" parent="z1fPCmr1SDwTJQNSFPKF-75">
          <mxGeometry y="180" width="180" height="30" as="geometry" />
        </mxCell>
        <mxCell id="z1fPCmr1SDwTJQNSFPKF-92" value="" style="shape=partialRectangle;connectable=0;fillColor=none;top=0;left=0;bottom=0;right=0;editable=1;overflow=hidden;" vertex="1" parent="z1fPCmr1SDwTJQNSFPKF-91">
          <mxGeometry width="30" height="30" as="geometry">
            <mxRectangle width="30" height="30" as="alternateBounds" />
          </mxGeometry>
        </mxCell>
        <mxCell id="z1fPCmr1SDwTJQNSFPKF-93" value="CustPostCode" style="shape=partialRectangle;connectable=0;fillColor=none;top=0;left=0;bottom=0;right=0;align=left;spacingLeft=6;overflow=hidden;" vertex="1" parent="z1fPCmr1SDwTJQNSFPKF-91">
          <mxGeometry x="30" width="150" height="30" as="geometry">
            <mxRectangle width="150" height="30" as="alternateBounds" />
          </mxGeometry>
        </mxCell>
        <mxCell id="z1fPCmr1SDwTJQNSFPKF-94" value="Invoice" style="shape=table;startSize=30;container=1;collapsible=1;childLayout=tableLayout;fixedRows=1;rowLines=0;fontStyle=1;align=center;resizeLast=1;html=1;whiteSpace=wrap;" vertex="1" parent="1">
          <mxGeometry x="-360" y="1000" width="180" height="120" as="geometry" />
        </mxCell>
        <mxCell id="z1fPCmr1SDwTJQNSFPKF-95" value="" style="shape=tableRow;horizontal=0;startSize=0;swimlaneHead=0;swimlaneBody=0;fillColor=none;collapsible=0;dropTarget=0;points=[[0,0.5],[1,0.5]];portConstraint=eastwest;top=0;left=0;right=0;bottom=0;html=1;" vertex="1" parent="z1fPCmr1SDwTJQNSFPKF-94">
          <mxGeometry y="30" width="180" height="30" as="geometry" />
        </mxCell>
        <mxCell id="z1fPCmr1SDwTJQNSFPKF-96" value="PK" style="shape=partialRectangle;connectable=0;fillColor=none;top=0;left=0;bottom=0;right=0;fontStyle=1;overflow=hidden;html=1;whiteSpace=wrap;" vertex="1" parent="z1fPCmr1SDwTJQNSFPKF-95">
          <mxGeometry width="60" height="30" as="geometry">
            <mxRectangle width="60" height="30" as="alternateBounds" />
          </mxGeometry>
        </mxCell>
        <mxCell id="z1fPCmr1SDwTJQNSFPKF-97" value="InvoiceNo" style="shape=partialRectangle;connectable=0;fillColor=none;top=0;left=0;bottom=0;right=0;align=left;spacingLeft=6;fontStyle=5;overflow=hidden;html=1;whiteSpace=wrap;" vertex="1" parent="z1fPCmr1SDwTJQNSFPKF-95">
          <mxGeometry x="60" width="120" height="30" as="geometry">
            <mxRectangle width="120" height="30" as="alternateBounds" />
          </mxGeometry>
        </mxCell>
        <mxCell id="z1fPCmr1SDwTJQNSFPKF-98" value="" style="shape=tableRow;horizontal=0;startSize=0;swimlaneHead=0;swimlaneBody=0;fillColor=none;collapsible=0;dropTarget=0;points=[[0,0.5],[1,0.5]];portConstraint=eastwest;top=0;left=0;right=0;bottom=1;html=1;" vertex="1" parent="z1fPCmr1SDwTJQNSFPKF-94">
          <mxGeometry y="60" width="180" height="30" as="geometry" />
        </mxCell>
        <mxCell id="z1fPCmr1SDwTJQNSFPKF-99" value="PK,FK" style="shape=partialRectangle;connectable=0;fillColor=none;top=0;left=0;bottom=0;right=0;fontStyle=1;overflow=hidden;html=1;whiteSpace=wrap;" vertex="1" parent="z1fPCmr1SDwTJQNSFPKF-98">
          <mxGeometry width="60" height="30" as="geometry">
            <mxRectangle width="60" height="30" as="alternateBounds" />
          </mxGeometry>
        </mxCell>
        <mxCell id="z1fPCmr1SDwTJQNSFPKF-100" value="CustID" style="shape=partialRectangle;connectable=0;fillColor=none;top=0;left=0;bottom=0;right=0;align=left;spacingLeft=6;fontStyle=5;overflow=hidden;html=1;whiteSpace=wrap;" vertex="1" parent="z1fPCmr1SDwTJQNSFPKF-98">
          <mxGeometry x="60" width="120" height="30" as="geometry">
            <mxRectangle width="120" height="30" as="alternateBounds" />
          </mxGeometry>
        </mxCell>
        <mxCell id="z1fPCmr1SDwTJQNSFPKF-101" value="" style="shape=tableRow;horizontal=0;startSize=0;swimlaneHead=0;swimlaneBody=0;fillColor=none;collapsible=0;dropTarget=0;points=[[0,0.5],[1,0.5]];portConstraint=eastwest;top=0;left=0;right=0;bottom=0;html=1;" vertex="1" parent="z1fPCmr1SDwTJQNSFPKF-94">
          <mxGeometry y="90" width="180" height="30" as="geometry" />
        </mxCell>
        <mxCell id="z1fPCmr1SDwTJQNSFPKF-102" value="" style="shape=partialRectangle;connectable=0;fillColor=none;top=0;left=0;bottom=0;right=0;editable=1;overflow=hidden;html=1;whiteSpace=wrap;" vertex="1" parent="z1fPCmr1SDwTJQNSFPKF-101">
          <mxGeometry width="60" height="30" as="geometry">
            <mxRectangle width="60" height="30" as="alternateBounds" />
          </mxGeometry>
        </mxCell>
        <mxCell id="z1fPCmr1SDwTJQNSFPKF-103" value="InvDate" style="shape=partialRectangle;connectable=0;fillColor=none;top=0;left=0;bottom=0;right=0;align=left;spacingLeft=6;overflow=hidden;html=1;whiteSpace=wrap;" vertex="1" parent="z1fPCmr1SDwTJQNSFPKF-101">
          <mxGeometry x="60" width="120" height="30" as="geometry">
            <mxRectangle width="120" height="30" as="alternateBounds" />
          </mxGeometry>
        </mxCell>
        <mxCell id="z1fPCmr1SDwTJQNSFPKF-107" value="Item" style="shape=table;startSize=30;container=1;collapsible=1;childLayout=tableLayout;fixedRows=1;rowLines=0;fontStyle=1;align=center;resizeLast=1;html=1;" vertex="1" parent="1">
          <mxGeometry x="120" y="1000" width="180" height="120" as="geometry" />
        </mxCell>
        <mxCell id="z1fPCmr1SDwTJQNSFPKF-108" value="" style="shape=tableRow;horizontal=0;startSize=0;swimlaneHead=0;swimlaneBody=0;fillColor=none;collapsible=0;dropTarget=0;points=[[0,0.5],[1,0.5]];portConstraint=eastwest;top=0;left=0;right=0;bottom=1;" vertex="1" parent="z1fPCmr1SDwTJQNSFPKF-107">
          <mxGeometry y="30" width="180" height="30" as="geometry" />
        </mxCell>
        <mxCell id="z1fPCmr1SDwTJQNSFPKF-109" value="PK" style="shape=partialRectangle;connectable=0;fillColor=none;top=0;left=0;bottom=0;right=0;fontStyle=1;overflow=hidden;whiteSpace=wrap;html=1;" vertex="1" parent="z1fPCmr1SDwTJQNSFPKF-108">
          <mxGeometry width="30" height="30" as="geometry">
            <mxRectangle width="30" height="30" as="alternateBounds" />
          </mxGeometry>
        </mxCell>
        <mxCell id="z1fPCmr1SDwTJQNSFPKF-110" value="ItemNo" style="shape=partialRectangle;connectable=0;fillColor=none;top=0;left=0;bottom=0;right=0;align=left;spacingLeft=6;fontStyle=5;overflow=hidden;whiteSpace=wrap;html=1;" vertex="1" parent="z1fPCmr1SDwTJQNSFPKF-108">
          <mxGeometry x="30" width="150" height="30" as="geometry">
            <mxRectangle width="150" height="30" as="alternateBounds" />
          </mxGeometry>
        </mxCell>
        <mxCell id="z1fPCmr1SDwTJQNSFPKF-111" value="" style="shape=tableRow;horizontal=0;startSize=0;swimlaneHead=0;swimlaneBody=0;fillColor=none;collapsible=0;dropTarget=0;points=[[0,0.5],[1,0.5]];portConstraint=eastwest;top=0;left=0;right=0;bottom=0;" vertex="1" parent="z1fPCmr1SDwTJQNSFPKF-107">
          <mxGeometry y="60" width="180" height="30" as="geometry" />
        </mxCell>
        <mxCell id="z1fPCmr1SDwTJQNSFPKF-112" value="" style="shape=partialRectangle;connectable=0;fillColor=none;top=0;left=0;bottom=0;right=0;editable=1;overflow=hidden;whiteSpace=wrap;html=1;" vertex="1" parent="z1fPCmr1SDwTJQNSFPKF-111">
          <mxGeometry width="30" height="30" as="geometry">
            <mxRectangle width="30" height="30" as="alternateBounds" />
          </mxGeometry>
        </mxCell>
        <mxCell id="z1fPCmr1SDwTJQNSFPKF-113" value="ItemDesc" style="shape=partialRectangle;connectable=0;fillColor=none;top=0;left=0;bottom=0;right=0;align=left;spacingLeft=6;overflow=hidden;whiteSpace=wrap;html=1;" vertex="1" parent="z1fPCmr1SDwTJQNSFPKF-111">
          <mxGeometry x="30" width="150" height="30" as="geometry">
            <mxRectangle width="150" height="30" as="alternateBounds" />
          </mxGeometry>
        </mxCell>
        <mxCell id="z1fPCmr1SDwTJQNSFPKF-114" value="" style="shape=tableRow;horizontal=0;startSize=0;swimlaneHead=0;swimlaneBody=0;fillColor=none;collapsible=0;dropTarget=0;points=[[0,0.5],[1,0.5]];portConstraint=eastwest;top=0;left=0;right=0;bottom=0;" vertex="1" parent="z1fPCmr1SDwTJQNSFPKF-107">
          <mxGeometry y="90" width="180" height="30" as="geometry" />
        </mxCell>
        <mxCell id="z1fPCmr1SDwTJQNSFPKF-115" value="" style="shape=partialRectangle;connectable=0;fillColor=none;top=0;left=0;bottom=0;right=0;editable=1;overflow=hidden;whiteSpace=wrap;html=1;" vertex="1" parent="z1fPCmr1SDwTJQNSFPKF-114">
          <mxGeometry width="30" height="30" as="geometry">
            <mxRectangle width="30" height="30" as="alternateBounds" />
          </mxGeometry>
        </mxCell>
        <mxCell id="z1fPCmr1SDwTJQNSFPKF-116" value="ItemPrice" style="shape=partialRectangle;connectable=0;fillColor=none;top=0;left=0;bottom=0;right=0;align=left;spacingLeft=6;overflow=hidden;whiteSpace=wrap;html=1;" vertex="1" parent="z1fPCmr1SDwTJQNSFPKF-114">
          <mxGeometry x="30" width="150" height="30" as="geometry">
            <mxRectangle width="150" height="30" as="alternateBounds" />
          </mxGeometry>
        </mxCell>
        <mxCell id="z1fPCmr1SDwTJQNSFPKF-133" value="InvoiceItem" style="shape=table;startSize=30;container=1;collapsible=1;childLayout=tableLayout;fixedRows=1;rowLines=0;fontStyle=1;align=center;resizeLast=1;html=1;whiteSpace=wrap;" vertex="1" parent="1">
          <mxGeometry x="-120" y="1000" width="180" height="150" as="geometry" />
        </mxCell>
        <mxCell id="z1fPCmr1SDwTJQNSFPKF-134" value="" style="shape=tableRow;horizontal=0;startSize=0;swimlaneHead=0;swimlaneBody=0;fillColor=none;collapsible=0;dropTarget=0;points=[[0,0.5],[1,0.5]];portConstraint=eastwest;top=0;left=0;right=0;bottom=0;html=1;" vertex="1" parent="z1fPCmr1SDwTJQNSFPKF-133">
          <mxGeometry y="30" width="180" height="30" as="geometry" />
        </mxCell>
        <mxCell id="z1fPCmr1SDwTJQNSFPKF-135" value="PK" style="shape=partialRectangle;connectable=0;fillColor=none;top=0;left=0;bottom=0;right=0;fontStyle=1;overflow=hidden;html=1;whiteSpace=wrap;" vertex="1" parent="z1fPCmr1SDwTJQNSFPKF-134">
          <mxGeometry width="60" height="30" as="geometry">
            <mxRectangle width="60" height="30" as="alternateBounds" />
          </mxGeometry>
        </mxCell>
        <mxCell id="z1fPCmr1SDwTJQNSFPKF-136" value="LineNo" style="shape=partialRectangle;connectable=0;fillColor=none;top=0;left=0;bottom=0;right=0;align=left;spacingLeft=6;fontStyle=5;overflow=hidden;html=1;whiteSpace=wrap;" vertex="1" parent="z1fPCmr1SDwTJQNSFPKF-134">
          <mxGeometry x="60" width="120" height="30" as="geometry">
            <mxRectangle width="120" height="30" as="alternateBounds" />
          </mxGeometry>
        </mxCell>
        <mxCell id="z1fPCmr1SDwTJQNSFPKF-137" value="" style="shape=tableRow;horizontal=0;startSize=0;swimlaneHead=0;swimlaneBody=0;fillColor=none;collapsible=0;dropTarget=0;points=[[0,0.5],[1,0.5]];portConstraint=eastwest;top=0;left=0;right=0;bottom=1;html=1;" vertex="1" parent="z1fPCmr1SDwTJQNSFPKF-133">
          <mxGeometry y="60" width="180" height="30" as="geometry" />
        </mxCell>
        <mxCell id="z1fPCmr1SDwTJQNSFPKF-138" value="PK,FK2" style="shape=partialRectangle;connectable=0;fillColor=none;top=0;left=0;bottom=0;right=0;fontStyle=1;overflow=hidden;html=1;whiteSpace=wrap;" vertex="1" parent="z1fPCmr1SDwTJQNSFPKF-137">
          <mxGeometry width="60" height="30" as="geometry">
            <mxRectangle width="60" height="30" as="alternateBounds" />
          </mxGeometry>
        </mxCell>
        <mxCell id="z1fPCmr1SDwTJQNSFPKF-139" value="ItemNo" style="shape=partialRectangle;connectable=0;fillColor=none;top=0;left=0;bottom=0;right=0;align=left;spacingLeft=6;fontStyle=5;overflow=hidden;html=1;whiteSpace=wrap;" vertex="1" parent="z1fPCmr1SDwTJQNSFPKF-137">
          <mxGeometry x="60" width="120" height="30" as="geometry">
            <mxRectangle width="120" height="30" as="alternateBounds" />
          </mxGeometry>
        </mxCell>
        <mxCell id="z1fPCmr1SDwTJQNSFPKF-140" value="" style="shape=tableRow;horizontal=0;startSize=0;swimlaneHead=0;swimlaneBody=0;fillColor=none;collapsible=0;dropTarget=0;points=[[0,0.5],[1,0.5]];portConstraint=eastwest;top=0;left=0;right=0;bottom=0;html=1;" vertex="1" parent="z1fPCmr1SDwTJQNSFPKF-133">
          <mxGeometry y="90" width="180" height="30" as="geometry" />
        </mxCell>
        <mxCell id="z1fPCmr1SDwTJQNSFPKF-141" value="FK" style="shape=partialRectangle;connectable=0;fillColor=none;top=0;left=0;bottom=0;right=0;editable=1;overflow=hidden;html=1;whiteSpace=wrap;fontStyle=1" vertex="1" parent="z1fPCmr1SDwTJQNSFPKF-140">
          <mxGeometry width="60" height="30" as="geometry">
            <mxRectangle width="60" height="30" as="alternateBounds" />
          </mxGeometry>
        </mxCell>
        <mxCell id="z1fPCmr1SDwTJQNSFPKF-142" value="InvoiceNo" style="shape=partialRectangle;connectable=0;fillColor=none;top=0;left=0;bottom=0;right=0;align=left;spacingLeft=6;overflow=hidden;html=1;whiteSpace=wrap;fontStyle=1" vertex="1" parent="z1fPCmr1SDwTJQNSFPKF-140">
          <mxGeometry x="60" width="120" height="30" as="geometry">
            <mxRectangle width="120" height="30" as="alternateBounds" />
          </mxGeometry>
        </mxCell>
        <mxCell id="z1fPCmr1SDwTJQNSFPKF-143" value="" style="shape=tableRow;horizontal=0;startSize=0;swimlaneHead=0;swimlaneBody=0;fillColor=none;collapsible=0;dropTarget=0;points=[[0,0.5],[1,0.5]];portConstraint=eastwest;top=0;left=0;right=0;bottom=0;html=1;" vertex="1" parent="z1fPCmr1SDwTJQNSFPKF-133">
          <mxGeometry y="120" width="180" height="30" as="geometry" />
        </mxCell>
        <mxCell id="z1fPCmr1SDwTJQNSFPKF-144" value="" style="shape=partialRectangle;connectable=0;fillColor=none;top=0;left=0;bottom=0;right=0;editable=1;overflow=hidden;html=1;whiteSpace=wrap;" vertex="1" parent="z1fPCmr1SDwTJQNSFPKF-143">
          <mxGeometry width="60" height="30" as="geometry">
            <mxRectangle width="60" height="30" as="alternateBounds" />
          </mxGeometry>
        </mxCell>
        <mxCell id="z1fPCmr1SDwTJQNSFPKF-145" value="Quantity" style="shape=partialRectangle;connectable=0;fillColor=none;top=0;left=0;bottom=0;right=0;align=left;spacingLeft=6;overflow=hidden;html=1;whiteSpace=wrap;" vertex="1" parent="z1fPCmr1SDwTJQNSFPKF-143">
          <mxGeometry x="60" width="120" height="30" as="geometry">
            <mxRectangle width="120" height="30" as="alternateBounds" />
          </mxGeometry>
        </mxCell>
        <mxCell id="z1fPCmr1SDwTJQNSFPKF-146" style="edgeStyle=orthogonalEdgeStyle;rounded=0;orthogonalLoop=1;jettySize=auto;html=1;exitX=1;exitY=0.5;exitDx=0;exitDy=0;entryX=0;entryY=0.5;entryDx=0;entryDy=0;" edge="1" parent="1" source="z1fPCmr1SDwTJQNSFPKF-137" target="z1fPCmr1SDwTJQNSFPKF-108">
          <mxGeometry relative="1" as="geometry" />
        </mxCell>
        <mxCell id="z1fPCmr1SDwTJQNSFPKF-147" style="edgeStyle=orthogonalEdgeStyle;rounded=0;orthogonalLoop=1;jettySize=auto;html=1;exitX=0;exitY=0.5;exitDx=0;exitDy=0;entryX=1;entryY=0.5;entryDx=0;entryDy=0;" edge="1" parent="1" source="z1fPCmr1SDwTJQNSFPKF-140" target="z1fPCmr1SDwTJQNSFPKF-95">
          <mxGeometry relative="1" as="geometry" />
        </mxCell>
        <mxCell id="z1fPCmr1SDwTJQNSFPKF-148" style="edgeStyle=orthogonalEdgeStyle;rounded=0;orthogonalLoop=1;jettySize=auto;html=1;exitX=0;exitY=0.5;exitDx=0;exitDy=0;entryX=1;entryY=0.5;entryDx=0;entryDy=0;" edge="1" parent="1" source="z1fPCmr1SDwTJQNSFPKF-98" target="z1fPCmr1SDwTJQNSFPKF-76">
          <mxGeometry relative="1" as="geometry" />
        </mxCell>
      </root>
    </mxGraphModel>
  </diagram>
</mxfile>
