﻿[
  {
    "Id": 1,
    "Name": "Construction Clean and Final Clean"
  },
  {
    "Id": 2,
    "Name": "Exterior Signage"
  },
  {
    "Id": 3,
    "Name": "Landscaping & Irrigation"
  },
  {
    "Id": 4,
    "Name": "Framing (Wood)"
  },
  {
    "Id": 5,
    "Name": "Construction Clean and Final Clean"
  },
  {
    "Id": 6,
    "Name": "Masonry"
  },
  {
    "Id": 7,
    "Name": "Prefabricated Aluminum Metal Canopies"
  },
  {
    "Id": 8,
    "Name": "Electrical"
  },
  {
    "Id": 9,
    "Name": "Doors, Frames & Hardware"
  },
  {
    "Id": 10,
    "Name": "Waterproofing & Caulking"
  }
]